ILAData/TEK0004.CSV

Record Length,2.500000e+03,,   0.009700000000,   0.36000,
Sample Interval,4.000000e-07,,   0.009700400000,   0.28000,
Trigger Point,-2.425000000000e+04,,   0.009700800000,   0.36000,
,,,   0.009701200000,   0.24000,
,,,   0.009701600000,   0.16000,
,,,   0.009702000000,   0.04000,
Source,CH2,,   0.009702400000,  -0.04000,
Vertical Units,V,,   0.009702800000,   0.04000,
Vertical Scale,1.000000e+00,,   0.009703200000,   0.04000,
Vertical Offset,1.680000e+00,,   0.009703600000,   0.12000,
Horizontal Units,s,,   0.009704000000,   0.20000,
Horizontal Scale,1.000000e-04,,   0.009704400000,   0.16000,
Pt Fmt,Y,,   0.009704800000,   0.28000,
Yzero,0.000000e+00,,   0.009705200000,   0.28000,
Probe Atten,1.000000e+00,,   0.009705600000,   0.28000,
Model Number,TDS2004C,,   0.009706000000,   0.16000,
Serial Number,C040472,,   0.009706400000,   0.08000,
Firmware Version,FV:v24.26,,   0.009706800000,   0.00000,
,,,0.009707200000,  -0.08000,
,,,0.009707600000,  -0.20000,
,,,0.009708000000,  -0.24000,
,,,0.009708400000,  -0.24000,
,,,0.009708800000,  -0.36000,
,,,0.009709200000,  -0.24000,
,,,0.009709600000,  -0.32000,
,,,0.009710000000,  -0.28000,
,,,0.009710400000,  -0.16000,
,,,0.009710800000,  -0.04000,
,,,0.009711200000,   0.12000,
,,,0.009711600000,   0.16000,
,,,0.009712000000,   0.24000,
,,,0.009712400000,   0.28000,
,,,0.009712800000,   0.36000,
,,,0.009713200000,   0.52000,
,,,0.009713600000,   0.64000,
,,,0.009714000000,   0.44000,
,,,0.009714400000,   0.60000,
,,,0.009714800000,   0.52000,
,,,0.009715200000,   0.68000,
,,,0.009715600000,   0.68000,
,,,0.009716000000,   0.76000,
,,,0.009716400000,   0.80000,
,,,0.009716800000,   0.88000,
,,,0.009717200000,   0.80000,
,,,0.009717600000,   0.88000,
,,,0.009718000000,   0.84000,
,,,0.009718400000,   0.80000,
,,,0.009718800000,   0.76000,
,,,0.009719200000,   0.64000,
,,,0.009719600000,   0.56000,
,,,0.009720000000,   0.56000,
,,,0.009720400000,   0.40000,
,,,0.009720800000,   0.28000,
,,,0.009721200000,   0.24000,
,,,0.009721600000,   0.08000,
,,,0.009722000000,  -0.04000,
,,,0.009722400000,  -0.16000,
,,,0.009722800000,  -0.28000,
,,,0.009723200000,  -0.40000,
,,,0.009723600000,  -0.28000,
,,,0.009724000000,  -0.36000,
,,,0.009724400000,  -0.40000,
,,,0.009724800000,  -0.36000,
,,,0.009725200000,  -0.40000,
,,,0.009725600000,  -0.60000,
,,,0.009726000000,  -0.68000,
,,,0.009726400000,  -0.60000,
,,,0.009726800000,  -0.52000,
,,,0.009727200000,  -0.64000,
,,,0.009727600000,  -0.64000,
,,,0.009728000000,  -0.56000,
,,,0.009728400000,  -0.68000,
,,,0.009728800000,  -0.88000,
,,,0.009729200000,  -1.04000,
,,,0.009729600000,  -0.92000,
,,,0.009730000000,  -1.00000,
,,,0.009730400000,   1.32000,
,,,0.009730800000,   1.00000,
,,,0.009731200000,   0.88000,
,,,0.009731600000,   0.52000,
,,,0.009732000000,   0.20000,
,,,0.009732400000,   0.08000,
,,,0.009732800000,  -0.16000,
,,,0.009733200000,  -0.36000,
,,,0.009733600000,  -0.64000,
,,,0.009734000000,  -0.80000,
,,,0.009734400000,  -0.96000,
,,,0.009734800000,   1.32000,
,,,0.009735200000,   0.96000,
,,,0.009735600000,   0.80000,
,,,0.009736000000,   0.52000,
,,,0.009736400000,   0.32000,
,,,0.009736800000,   0.08000,
,,,0.009737200000,  -0.12000,
,,,0.009737600000,  -0.12000,
,,,0.009738000000,  -0.20000,
,,,0.009738400000,  -0.24000,
,,,0.009738800000,  -0.28000,
,,,0.009739200000,  -0.28000,
,,,0.009739600000,  -0.36000,
,,,0.009740000000,  -0.56000,
,,,0.009740400000,  -0.48000,
,,,0.009740800000,  -0.40000,
,,,0.009741200000,  -0.44000,
,,,0.009741600000,  -0.32000,
,,,0.009742000000,  -0.36000,
,,,0.009742400000,  -0.32000,
,,,0.009742800000,  -0.36000,
,,,0.009743200000,  -0.36000,
,,,0.009743600000,  -0.40000,
,,,0.009744000000,  -0.36000,
,,,0.009744400000,  -0.40000,
,,,0.009744800000,  -0.20000,
,,,0.009745200000,  -0.24000,
,,,0.009745600000,  -0.20000,
,,,0.009746000000,  -0.12000,
,,,0.009746400000,  -0.04000,
,,,0.009746800000,   0.00000,
,,,0.009747200000,  -0.04000,
,,,0.009747600000,  -0.12000,
,,,0.009748000000,  -0.08000,
,,,0.009748400000,  -0.04000,
,,,0.009748800000,  -0.08000,
,,,0.009749200000,  -0.04000,
,,,0.009749600000,   0.12000,
,,,0.009750000000,   0.24000,
,,,0.009750400000,   0.48000,
,,,0.009750800000,   0.52000,
,,,0.009751200000,   0.80000,
,,,0.009751600000,   1.04000,
,,,0.009752000000,   1.08000,
,,,0.009752400000,  -0.28000,
,,,0.009752800000,  -0.52000,
,,,0.009753200000,  -0.24000,
,,,0.009753600000,  -0.08000,
,,,0.009754000000,   0.24000,
,,,0.009754400000,   0.40000,
,,,0.009754800000,   0.76000,
,,,0.009755200000,   1.00000,
,,,0.009755600000,  -1.28000,
,,,0.009756000000,  -0.80000,
,,,0.009756400000,  -0.48000,
,,,0.009756800000,  -0.36000,
,,,0.009757200000,  -0.20000,
,,,0.009757600000,   0.00000,
,,,0.009758000000,   0.12000,
,,,0.009758400000,   0.20000,
,,,0.009758800000,   0.40000,
,,,0.009759200000,   0.48000,
,,,0.009759600000,   0.48000,
,,,0.009760000000,   0.68000,
,,,0.009760400000,   0.84000,
,,,0.009760800000,   0.88000,
,,,0.009761200000,   1.04000,
,,,0.009761600000,   0.96000,
,,,0.009762000000,   1.00000,
,,,0.009762400000,   1.16000,
,,,0.009762800000,   0.80000,
,,,0.009763200000,  -1.20000,
,,,0.009763600000,  -1.04000,
,,,0.009764000000,  -0.92000,
,,,0.009764400000,  -0.64000,
,,,0.009764800000,  -0.32000,
,,,0.009765200000,  -0.12000,
,,,0.009765600000,   0.00000,
,,,0.009766000000,   0.12000,
,,,0.009766400000,   0.44000,
,,,0.009766800000,   0.60000,
,,,0.009767200000,   0.88000,
,,,0.009767600000,   0.96000,
,,,0.009768000000,   1.08000,
,,,0.009768400000,  -0.92000,
,,,0.009768800000,  -0.92000,
,,,0.009769200000,  -0.96000,
,,,0.009769600000,  -0.96000,
,,,0.009770000000,  -0.84000,
,,,0.009770400000,  -0.96000,
,,,0.009770800000,  -0.96000,
,,,0.009771200000,  -1.04000,
,,,0.009771600000,  -0.96000,
,,,0.009772000000,  -0.96000,
,,,0.009772400000,  -1.08000,
,,,0.009772800000,  -0.64000,
,,,0.009773200000,   0.08000,
,,,0.009773600000,  -0.72000,
,,,0.009774000000,   1.20000,
,,,0.009774400000,   1.08000,
,,,0.009774800000,   1.24000,
,,,0.009775200000,   0.80000,
,,,0.009775600000,  -0.80000,
,,,0.009776000000,  -0.76000,
,,,0.009776400000,   1.24000,
,,,0.009776800000,   1.08000,
,,,0.009777200000,   1.04000,
,,,0.009777600000,   0.96000,
,,,0.009778000000,   1.00000,
,,,0.009778400000,   0.96000,
,,,0.009778800000,   0.96000,
,,,0.009779200000,   0.80000,
,,,0.009779600000,   0.60000,
,,,0.009780000000,   0.40000,
,,,0.009780400000,   0.04000,
,,,0.009780800000,   0.00000,
,,,0.009781200000,  -0.08000,
,,,0.009781600000,  -0.28000,
,,,0.009782000000,  -0.44000,
,,,0.009782400000,  -0.64000,
,,,0.009782800000,  -0.76000,
,,,0.009783200000,  -0.92000,
,,,0.009783600000,  -0.32000,
,,,0.009784000000,   0.92000,
,,,0.009784400000,   0.72000,
,,,0.009784800000,   0.56000,
,,,0.009785200000,   0.36000,
,,,0.009785600000,   0.08000,
,,,0.009786000000,  -0.08000,
,,,0.009786400000,  -0.16000,
,,,0.009786800000,  -0.24000,
,,,0.009787200000,  -0.44000,
,,,0.009787600000,  -0.48000,
,,,0.009788000000,  -0.56000,
,,,0.009788400000,  -0.56000,
,,,0.009788800000,  -0.72000,
,,,0.009789200000,  -0.72000,
,,,0.009789600000,  -0.88000,
,,,0.009790000000,  -0.92000,
,,,0.009790400000,  -1.00000,
,,,0.009790800000,  -1.00000,
,,,0.009791200000,  -0.68000,
,,,0.009791600000,   1.40000,
,,,0.009792000000,   1.12000,
,,,0.009792400000,   1.16000,
,,,0.009792800000,   1.04000,
,,,0.009793200000,   0.92000,
,,,0.009793600000,   0.72000,
,,,0.009794000000,   0.48000,
,,,0.009794400000,   0.28000,
,,,0.009794800000,   0.12000,
,,,0.009795200000,   0.00000,
,,,0.009795600000,  -0.24000,
,,,0.009796000000,  -0.36000,
,,,0.009796400000,  -0.72000,
,,,0.009796800000,  -0.80000,
,,,0.009797200000,  -0.92000,
,,,0.009797600000,  -0.92000,
,,,0.009798000000,  -0.76000,
,,,0.009798400000,   1.00000,
,,,0.009798800000,   0.80000,
,,,0.009799200000,   0.52000,
,,,0.009799600000,   0.48000,
,,,0.009800000000,   0.28000,
,,,0.009800400000,   0.16000,
,,,0.009800800000,   0.00000,
,,,0.009801200000,  -0.12000,
,,,0.009801600000,  -0.32000,
,,,0.009802000000,  -0.44000,
,,,0.009802400000,  -0.52000,
,,,0.009802800000,  -0.52000,
,,,0.009803200000,  -0.60000,
,,,0.009803600000,  -0.60000,
,,,0.009804000000,  -0.68000,
,,,0.009804400000,  -0.76000,
,,,0.009804800000,  -0.92000,
,,,0.009805200000,  -0.96000,
,,,0.009805600000,  -1.00000,
,,,0.009806000000,   0.88000,
,,,0.009806400000,   1.16000,
,,,0.009806800000,   1.00000,
,,,0.009807200000,   0.80000,
,,,0.009807600000,   0.52000,
,,,0.009808000000,   0.36000,
,,,0.009808400000,   0.16000,
,,,0.009808800000,  -0.08000,
,,,0.009809200000,  -0.44000,
,,,0.009809600000,  -0.68000,
,,,0.009810000000,  -0.68000,
,,,0.009810400000,  -0.84000,
,,,0.009810800000,  -0.72000,
,,,0.009811200000,   1.08000,
,,,0.009811600000,   1.00000,
,,,0.009812000000,   0.76000,
,,,0.009812400000,   0.56000,
,,,0.009812800000,   0.32000,
,,,0.009813200000,   0.16000,
,,,0.009813600000,  -0.08000,
,,,0.009814000000,  -0.12000,
,,,0.009814400000,  -0.12000,
,,,0.009814800000,  -0.28000,
,,,0.009815200000,  -0.28000,
,,,0.009815600000,  -0.36000,
,,,0.009816000000,  -0.24000,
,,,0.009816400000,  -0.44000,
,,,0.009816800000,  -0.52000,
,,,0.009817200000,  -0.64000,
,,,0.009817600000,  -0.84000,
,,,0.009818000000,  -0.96000,
,,,0.009818400000,  -1.00000,
,,,0.009818800000,   1.16000,
,,,0.009819200000,   1.04000,
,,,0.009819600000,   0.96000,
,,,0.009820000000,   0.80000,
,,,0.009820400000,   0.64000,
,,,0.009820800000,   0.44000,
,,,0.009821200000,   0.36000,
,,,0.009821600000,   0.08000,
,,,0.009822000000,  -0.20000,
,,,0.009822400000,  -0.28000,
,,,0.009822800000,  -0.44000,
,,,0.009823200000,  -0.44000,
,,,0.009823600000,  -0.60000,
,,,0.009824000000,  -0.60000,
,,,0.009824400000,  -0.64000,
,,,0.009824800000,  -0.64000,
,,,0.009825200000,  -0.84000,
,,,0.009825600000,  -0.76000,
,,,0.009826000000,  -0.84000,
,,,0.009826400000,  -0.92000,
,,,0.009826800000,  -1.00000,
,,,0.009827200000,  -0.96000,
,,,0.009827600000,  -0.08000,
,,,0.009828000000,   0.92000,
,,,0.009828400000,   0.96000,
,,,0.009828800000,   0.80000,
,,,0.009829200000,   0.76000,
,,,0.009829600000,   0.64000,
,,,0.009830000000,   0.56000,
,,,0.009830400000,   0.48000,
,,,0.009830800000,   0.32000,
,,,0.009831200000,   0.08000,
,,,0.009831600000,   0.08000,
,,,0.009832000000,   0.08000,
,,,0.009832400000,   0.00000,
,,,0.009832800000,  -0.16000,
,,,0.009833200000,  -0.08000,
,,,0.009833600000,   0.08000,
,,,0.009834000000,   0.24000,
,,,0.009834400000,   0.08000,
,,,0.009834800000,   0.12000,
,,,0.009835200000,   0.16000,
,,,0.009835600000,   0.20000,
,,,0.009836000000,   0.28000,
,,,0.009836400000,   0.40000,
,,,0.009836800000,   0.48000,
,,,0.009837200000,   0.52000,
,,,0.009837600000,   0.52000,
,,,0.009838000000,   0.52000,
,,,0.009838400000,   0.44000,
,,,0.009838800000,   0.64000,
,,,0.009839200000,   0.64000,
,,,0.009839600000,   0.56000,
,,,0.009840000000,   0.64000,
,,,0.009840400000,   0.68000,
,,,0.009840800000,   0.64000,
,,,0.009841200000,   0.48000,
,,,0.009841600000,   0.76000,
,,,0.009842000000,   0.84000,
,,,0.009842400000,   0.92000,
,,,0.009842800000,   1.04000,
,,,0.009843200000,   0.92000,
,,,0.009843600000,   1.16000,
,,,0.009844000000,   1.08000,
,,,0.009844400000,  -1.24000,
,,,0.009844800000,  -0.96000,
,,,0.009845200000,  -0.88000,
,,,0.009845600000,  -0.92000,
,,,0.009846000000,  -0.88000,
,,,0.009846400000,  -0.76000,
,,,0.009846800000,  -0.72000,
,,,0.009847200000,  -0.72000,
,,,0.009847600000,  -0.80000,
,,,0.009848000000,  -0.88000,
,,,0.009848400000,  -0.84000,
,,,0.009848800000,  -0.88000,
,,,0.009849200000,  -0.92000,
,,,0.009849600000,  -0.92000,
,,,0.009850000000,  -1.04000,
,,,0.009850400000,  -1.08000,
,,,0.009850800000,  -0.28000,
,,,0.009851200000,  -0.40000,
,,,0.009851600000,  -1.04000,
,,,0.009852000000,   1.52000,
,,,0.009852400000,   1.20000,
,,,0.009852800000,   1.04000,
,,,0.009853200000,   0.96000,
,,,0.009853600000,   1.16000,
,,,0.009854000000,   1.12000,
,,,0.009854400000,   1.04000,
,,,0.009854800000,   0.96000,
,,,0.009855200000,   1.04000,
,,,0.009855600000,   1.16000,
,,,0.009856000000,   1.04000,
,,,0.009856400000,   1.04000,
,,,0.009856800000,   0.92000,
,,,0.009857200000,   0.76000,
,,,0.009857600000,   0.72000,
,,,0.009858000000,   0.72000,
,,,0.009858400000,   0.72000,
,,,0.009858800000,   0.68000,
,,,0.009859200000,   0.52000,
,,,0.009859600000,   0.56000,
,,,0.009860000000,   0.40000,
,,,0.009860400000,   0.28000,
,,,0.009860800000,   0.12000,
,,,0.009861200000,   0.08000,
,,,0.009861600000,  -0.12000,
,,,0.009862000000,  -0.20000,
,,,0.009862400000,  -0.32000,
,,,0.009862800000,  -0.48000,
,,,0.009863200000,  -0.56000,
,,,0.009863600000,  -0.64000,
,,,0.009864000000,  -0.72000,
,,,0.009864400000,  -0.88000,
,,,0.009864800000,   1.36000,
,,,0.009865200000,   1.20000,
,,,0.009865600000,   1.08000,
,,,0.009866000000,   0.96000,
,,,0.009866400000,   1.00000,
,,,0.009866800000,   0.84000,
,,,0.009867200000,   0.84000,
,,,0.009867600000,   0.68000,
,,,0.009868000000,   0.72000,
,,,0.009868400000,   0.52000,
,,,0.009868800000,   0.48000,
,,,0.009869200000,   0.44000,
,,,0.009869600000,   0.40000,
,,,0.009870000000,   0.40000,
,,,0.009870400000,   0.28000,
,,,0.009870800000,   0.16000,
,,,0.009871200000,   0.04000,
,,,0.009871600000,  -0.04000,
,,,0.009872000000,  -0.08000,
,,,0.009872400000,  -0.24000,
,,,0.009872800000,  -0.48000,
,,,0.009873200000,  -0.52000,
,,,0.009873600000,  -0.76000,
,,,0.009874000000,  -0.88000,
,,,0.009874400000,  -0.96000,
,,,0.009874800000,   0.52000,
,,,0.009875200000,   0.84000,
,,,0.009875600000,   0.80000,
,,,0.009876000000,   0.64000,
,,,0.009876400000,   0.52000,
,,,0.009876800000,   0.36000,
,,,0.009877200000,   0.36000,
,,,0.009877600000,   0.28000,
,,,0.009878000000,   0.20000,
,,,0.009878400000,   0.04000,
,,,0.009878800000,   0.00000,
,,,0.009879200000,  -0.08000,
,,,0.009879600000,  -0.24000,
,,,0.009880000000,  -0.44000,
,,,0.009880400000,  -0.36000,
,,,0.009880800000,  -0.56000,
,,,0.009881200000,  -0.56000,
,,,0.009881600000,  -0.64000,
,,,0.009882000000,  -0.52000,
,,,0.009882400000,  -0.52000,
,,,0.009882800000,  -0.36000,
,,,0.009883200000,  -0.32000,
,,,0.009883600000,  -0.44000,
,,,0.009884000000,  -0.44000,
,,,0.009884400000,  -0.32000,
,,,0.009884800000,  -0.16000,
,,,0.009885200000,  -0.12000,
,,,0.009885600000,  -0.32000,
,,,0.009886000000,  -0.28000,
,,,0.009886400000,  -0.24000,
,,,0.009886800000,  -0.40000,
,,,0.009887200000,  -0.44000,
,,,0.009887600000,  -0.56000,
,,,0.009888000000,  -0.64000,
,,,0.009888400000,  -0.88000,
,,,0.009888800000,  -1.04000,
,,,0.009889200000,   1.40000,
,,,0.009889600000,   1.04000,
,,,0.009890000000,   0.88000,
,,,0.009890400000,   0.80000,
,,,0.009890800000,   0.76000,
,,,0.009891200000,   0.60000,
,,,0.009891600000,   0.60000,
,,,0.009892000000,   0.56000,
,,,0.009892400000,   0.68000,
,,,0.009892800000,   0.68000,
,,,0.009893200000,   0.76000,
,,,0.009893600000,   0.80000,
,,,0.009894000000,   0.72000,
,,,0.009894400000,   0.84000,
,,,0.009894800000,   0.84000,
,,,0.009895200000,   0.96000,
,,,0.009895600000,   0.88000,
,,,0.009896000000,   0.96000,
,,,0.009896400000,   0.84000,
,,,0.009896800000,   0.84000,
,,,0.009897200000,   0.76000,
,,,0.009897600000,   0.60000,
,,,0.009898000000,   0.48000,
,,,0.009898400000,   0.32000,
,,,0.009898800000,   0.04000,
,,,0.009899200000,   0.00000,
,,,0.009899600000,  -0.24000,
,,,0.009900000000,  -0.28000,
,,,0.009900400000,  -0.52000,
,,,0.009900800000,  -0.64000,
,,,0.009901200000,  -0.80000,
,,,0.009901600000,  -0.96000,
,,,0.009902000000,  -0.80000,
,,,0.009902400000,   1.24000,
,,,0.009902800000,   1.08000,
,,,0.009903200000,   1.04000,
,,,0.009903600000,   0.88000,
,,,0.009904000000,   0.76000,
,,,0.009904400000,   0.72000,
,,,0.009904800000,   0.60000,
,,,0.009905200000,   0.64000,
,,,0.009905600000,   0.64000,
,,,0.009906000000,   0.68000,
,,,0.009906400000,   0.72000,
,,,0.009906800000,   0.68000,
,,,0.009907200000,   0.60000,
,,,0.009907600000,   0.48000,
,,,0.009908000000,   0.28000,
,,,0.009908400000,   0.20000,
,,,0.009908800000,   0.08000,
,,,0.009909200000,  -0.04000,
,,,0.009909600000,  -0.24000,
,,,0.009910000000,  -0.32000,
,,,0.009910400000,  -0.68000,
,,,0.009910800000,  -0.96000,
,,,0.009911200000,   1.08000,
,,,0.009911600000,   0.84000,
,,,0.009912000000,   0.72000,
,,,0.009912400000,   0.48000,
,,,0.009912800000,   0.32000,
,,,0.009913200000,   0.12000,
,,,0.009913600000,  -0.12000,
,,,0.009914000000,  -0.32000,
,,,0.009914400000,  -0.40000,
,,,0.009914800000,  -0.64000,
,,,0.009915200000,  -0.84000,
,,,0.009915600000,  -0.96000,
,,,0.009916000000,  -1.00000,
,,,0.009916400000,   0.08000,
,,,0.009916800000,   0.88000,
,,,0.009917200000,   1.04000,
,,,0.009917600000,   1.04000,
,,,0.009918000000,   1.00000,
,,,0.009918400000,   1.04000,
,,,0.009918800000,   0.84000,
,,,0.009919200000,   0.72000,
,,,0.009919600000,   0.76000,
,,,0.009920000000,   0.64000,
,,,0.009920400000,   0.68000,
,,,0.009920800000,   0.64000,
,,,0.009921200000,   0.56000,
,,,0.009921600000,   0.44000,
,,,0.009922000000,   0.12000,
,,,0.009922400000,   0.04000,
,,,0.009922800000,  -0.08000,
,,,0.009923200000,  -0.16000,
,,,0.009923600000,  -0.40000,
,,,0.009924000000,  -0.32000,
,,,0.009924400000,  -0.48000,
,,,0.009924800000,  -0.68000,
,,,0.009925200000,  -0.84000,
,,,0.009925600000,  -0.88000,
,,,0.009926000000,  -1.04000,
,,,0.009926400000,  -0.52000,
,,,0.009926800000,   0.84000,
,,,0.009927200000,   0.84000,
,,,0.009927600000,   0.88000,
,,,0.009928000000,   0.76000,
,,,0.009928400000,   0.68000,
,,,0.009928800000,   0.60000,
,,,0.009929200000,   0.64000,
,,,0.009929600000,   0.84000,
,,,0.009930000000,   0.80000,
,,,0.009930400000,   0.84000,
,,,0.009930800000,   0.88000,
,,,0.009931200000,   0.84000,
,,,0.009931600000,   0.76000,
,,,0.009932000000,   0.80000,
,,,0.009932400000,   0.88000,
,,,0.009932800000,   0.96000,
,,,0.009933200000,   1.00000,
,,,0.009933600000,   1.00000,
,,,0.009934000000,   0.92000,
,,,0.009934400000,   0.84000,
,,,0.009934800000,   1.08000,
,,,0.009935200000,   1.04000,
,,,0.009935600000,   1.04000,
,,,0.009936000000,   0.96000,
,,,0.009936400000,   1.04000,
,,,0.009936800000,   0.76000,
,,,0.009937200000,   0.68000,
,,,0.009937600000,   0.56000,
,,,0.009938000000,   0.56000,
,,,0.009938400000,   0.40000,
,,,0.009938800000,   0.36000,
,,,0.009939200000,   0.28000,
,,,0.009939600000,   0.24000,
,,,0.009940000000,   0.24000,
,,,0.009940400000,   0.24000,
,,,0.009940800000,   0.08000,
,,,0.009941200000,   0.00000,
,,,0.009941600000,  -0.08000,
,,,0.009942000000,  -0.04000,
,,,0.009942400000,  -0.12000,
,,,0.009942800000,  -0.20000,
,,,0.009943200000,  -0.32000,
,,,0.009943600000,  -0.40000,
,,,0.009944000000,  -0.64000,
,,,0.009944400000,  -0.64000,
,,,0.009944800000,  -0.72000,
,,,0.009945200000,  -0.44000,
,,,0.009945600000,  -0.36000,
,,,0.009946000000,  -0.32000,
,,,0.009946400000,  -0.24000,
,,,0.009946800000,  -0.28000,
,,,0.009947200000,  -0.36000,
,,,0.009947600000,  -0.40000,
,,,0.009948000000,  -0.32000,
,,,0.009948400000,  -0.60000,
,,,0.009948800000,  -0.72000,
,,,0.009949200000,  -0.96000,
,,,0.009949600000,   1.40000,
,,,0.009950000000,   1.04000,
,,,0.009950400000,   0.88000,
,,,0.009950800000,   0.52000,
,,,0.009951200000,   0.20000,
,,,0.009951600000,  -0.08000,
,,,0.009952000000,  -0.32000,
,,,0.009952400000,  -0.84000,
,,,0.009952800000,   0.88000,
,,,0.009953200000,   0.72000,
,,,0.009953600000,   0.44000,
,,,0.009954000000,   0.16000,
,,,0.009954400000,  -0.16000,
,,,0.009954800000,  -0.44000,
,,,0.009955200000,  -0.56000,
,,,0.009955600000,  -0.76000,
,,,0.009956000000,  -0.92000,
,,,0.009956400000,   0.64000,
,,,0.009956800000,   0.76000,
,,,0.009957200000,   0.60000,
,,,0.009957600000,   0.32000,
,,,0.009958000000,   0.40000,
,,,0.009958400000,   0.12000,
,,,0.009958800000,  -0.08000,
,,,0.009959200000,  -0.24000,
,,,0.009959600000,  -0.40000,
,,,0.009960000000,  -0.60000,
,,,0.009960400000,  -0.68000,
,,,0.009960800000,  -0.76000,
,,,0.009961200000,  -0.92000,
